 digraph architecture {
    rankdir=LR;
    newrank=true;

    {
        "Users" [shape=Msquare];
    
        "Netlify Static Address" [shape=component];
        "GCP Static Address" [shape=component];

        "http://effurt.your.domain" [shape=cds];
        "tcp://effurt-data.your.domain" [shape=cds];

        "Netlify Server" [shape=box3d];
        "EFFURT Static Content" [shape=folder];
        
        "GCP Server" [shape=box3d];
        "Apache CouchDB" [shape=cylinder];
    }

    subgraph cluster_netlify {
        color=blue;
        label="Netlify";
        "Netlify Static Address" -> "Netlify Server";
        "Netlify Server" -> "EFFURT Static Content";
    }

    subgraph cluster_domain {
        color=red;
        label="Domain Name Server (DNS)";
        "http://effurt.your.domain";
        "tcp://effurt-data.your.domain";
    }

    subgraph cluster_gcp {
        color=green;
        label="Google Cloud Platform (GCP)";
        "GCP Static Address" -> "GCP Server";
        "GCP Server" -> "Apache CouchDB";
    }

    { rank=same; "Netlify Static Address"; "GCP Static Address"; }

    "Users" -> "http://effurt.your.domain";
    "http://effurt.your.domain" -> "Netlify Static Address";

    { rank=same; "Users"; "http://effurt.your.domain"; }

    "EFFURT Static Content" -> "tcp://effurt-data.your.domain";
    "tcp://effurt-data.your.domain" -> "GCP Static Address";
 }